Primary Human Hepatocytes baseline description by scRNAseq
…
Gene markers identification for scPPIN

As described in manuscript, this was done without filtering, therefore this step it does take some time to run (~45 min in a 2017 ok machine)

#only hepatocytes
genes.per.cluster.bs_nofilter <- FindAllMarkers(object = BS.spheroid,print.bar = F,random.seed = 12345,logfc.threshold=0.0,return.thresh = 1)
write_rds(genes.per.cluster.bs_nofilter,path = "genes.per.cluster.bs_nofilter_20190423.RDS",compress = "xz")

genes.per.cluster.bs_nofilter <- read_rds("genes.per.cluster.bs_nofilter_20190423.RDS") %>% as_tibble()
genes.per.cluster.bs_nofilter

## # A tibble: 59,788 x 7
##        p_val avg_logFC pct.1 pct.2 p_val_adj cluster gene  
##        <dbl>     <dbl> <dbl> <dbl>     <dbl> <fct>   <chr> 
##  1 9.17e-209     -1.57 0.822 0.997 1.41e-204 0       RPS12 
##  2 5.49e-208     -2.22 0.971 1     8.43e-204 0       FTH1  
##  3 1.63e-207     -1.45 0.898 0.999 2.50e-203 0       RPL13A
##  4 1.13e-205     -1.41 0.966 1     1.74e-201 0       RPL41 
##  5 6.52e-203     -1.40 0.876 0.999 1.00e-198 0       RPL13 
##  6 6.52e-200     -1.44 0.776 0.997 1.00e-195 0       RPLP2 
##  7 1.54e-199     -1.46 0.834 0.996 2.37e-195 0       RPS14 
##  8 1.40e-198     -1.47 0.793 0.996 2.14e-194 0       RPL32 
##  9 1.98e-197     -1.48 0.783 0.994 3.03e-193 0       RPL23A
## 10 3.17e-197     -1.47 0.79  0.995 4.86e-193 0       RPL27A
## #  with 59,778 more rows
…
